module gitlab.com/linalinn/yt-cli

go 1.18

require (
	github.com/spf13/cobra v1.5.0
	golang.org/x/net v0.0.0-20220726230323-06994584191e
	golang.org/x/oauth2 v0.0.0-20220722155238-128564f6959c
	google.golang.org/api v0.84.0
)

require (
	cloud.google.com/go/compute v1.7.0 // indirect
	github.com/golang/groupcache v0.0.0-20200121045136-8c9f03a8e57e // indirect
	github.com/golang/protobuf v1.5.2 // indirect
	github.com/googleapis/enterprise-certificate-proxy v0.0.0-20220520183353-fd19c99a87aa // indirect
	github.com/googleapis/gax-go/v2 v2.4.0 // indirect
	github.com/inconshreveable/mousetrap v1.0.0 // indirect
	github.com/spf13/pflag v1.0.5 // indirect
	go.opencensus.io v0.23.0 // indirect
	golang.org/x/sys v0.0.0-20220722155257-8c9f86f7a55f // indirect
	golang.org/x/text v0.3.7 // indirect
	google.golang.org/appengine v1.6.7 // indirect
	google.golang.org/genproto v0.0.0-20220616135557-88e70c0c3a90 // indirect
	google.golang.org/grpc v1.47.0 // indirect
	google.golang.org/protobuf v1.28.0 // indirect
)
